[
 {
    "code": "USD",
    "alphaCode": "USD",
    "numericCode": "840",
    "name": "U.S. Dollar"
 },
 {
    "code": "EUR",
    "alphaCode": "EUR",
    "numericCode": "978",
    "name": "Euro"
 },
  {
    "code": "GBP",
    "alphaCode": "GBP",
    "numericCode": "826",
    "name": "U.K. Pound Sterling"
 },
 {
    "code": "CHF",
    "alphaCode": "CHF",
    "numericCode": "756",
    "name": "Swiss Franc"
 },
  {
    "code": "AUD",
    "alphaCode": "AUD",
    "numericCode": "036",
    "name": "Australian Dollar"
},
  {
    "code": "CAD",
    "alphaCode": "CAD",
    "numericCode": "124",
    "name": "Canadian Dollar"
 },
   {
    "code": "BRL",
    "alphaCode": "BRL",
    "numericCode": "986",
    "name": "Brazilian Real"
 },
 {
    "code": "PEN",
    "alphaCode": "PEN",
    "numericCode": "604",
    "name": "Peruvian Nuevo Sol"
}
 
]
