[
  {
	 "baseCurrency": {
	    "id": 1
	 },
	  
	  "counterCurrency": {
	    "id": 2
	  },
    "rate": 0.92723146568975,
    "date": "Fri, 24 Apr 2020 00:00:01 GMT",
    "inverseRate": 1.0784793624924
  },
  {
  	  "baseCurrency": {
	    "id": 1
	  },
	  
	  "counterCurrency": {
	    "id": 3
	  },
    "rate": 0.80960172848067,
    "date": "Fri, 24 Apr 2020 00:00:01 GMT",
    "inverseRate": 1.2351752285369
  },
	{
  	  "baseCurrency": {
	    "id": 1
	  },
	  
	  "counterCurrency": {
	    "id": 4
	  },
    "rate": 0.97493641416585,
    "date": "Fri, 24 Apr 2020 00:00:01 GMT",
    "inverseRate": 1.025707918455
  },
  {
  	  "baseCurrency": {
	    "id": 1
	  },
	  
	  "counterCurrency": {
	    "id": 5
	  },
    "rate": 1.5728771218696,
    "date": "Fri, 24 Apr 2020 00:00:01 GMT",
    "inverseRate": 0.63577757352803
  },
  {
  	  "baseCurrency": {
	    "id": 1
	  },
	  
	  "counterCurrency": {
	    "id": 6
	  },
    "rate": 1.4142561843372,
    "date": "Fri, 24 Apr 2020 00:00:01 GMT",
    "inverseRate": 0.70708547084675
  },
 {
  	  "baseCurrency": {
	    "id": 1
	  },
	  "counterCurrency": {
	    "id": 8
	  },
    "rate": 3.3671277916624,
    "date": "Fri, 24 Apr 2020 00:00:01 GMT",
    "inverseRate": 0.29698902503082
  },
  {
  	  "baseCurrency": {
	    "id": 1
	  },
	  
	  "counterCurrency": {
	    "id": 7
	  },
    "rate": 5.4336039973716,
    "date": "Fri, 24 Apr 2020 00:00:01 GMT",
    "inverseRate": 0.18403991172042
  }
 
]